Computational Social Science 2025/26 - 🗓️ Week 04Automating – Functional Programming
…
Try this code and tell us what you think it’s wrong

Use if_else() instead

This vectorises the if-else comparison and makes a separate comparison for each row of the data frame

gap_ifelse <- gap %>%
  mutate(life.35 = if_else(lifeExp >= 35, 1, 0))

gap_ifelse

# A tibble: 1,704 × 7
   country     continent  year lifeExp      pop gdpPercap life.35
   <fct>       <fct>     <int>   <dbl>    <int>     <dbl>   <dbl>
 1 Afghanistan Asia       1952    28.8  8425333      779.       0
 2 Afghanistan Asia       1957    30.3  9240934      821.       0
 3 Afghanistan Asia       1962    32.0 10267083      853.       0
 4 Afghanistan Asia       1967    34.0 11537966      836.       0
 5 Afghanistan Asia       1972    36.1 13079460      740.       1
 6 Afghanistan Asia       1977    38.4 14880372      786.       1
 7 Afghanistan Asia       1982    39.9 12881816      978.       1
 8 Afghanistan Asia       1987    40.8 13867957      852.       1
 9 Afghanistan Asia       1992    41.7 16317921      649.       1
10 Afghanistan Asia       1997    41.8 22227415      635.       1
# ℹ 1,694 more rows
…
