Computational Social Science 2025/26 - 🗓️ Week 03Wrangling and Tidying Data
…
Rows: 6
Columns: 4
$ country    <chr> "Afghanistan", "Afghanistan", "Brazil", "Brazil", "China", …
$ year       <dbl> 1999, 2000, 1999, 2000, 1999, 2000
$ cases      <dbl> 745, 2666, 37737, 80488, 212258, 213766
$ population <dbl> 19987071, 20595360, 172006362, 174504898, 1272915272, 12804…

#skim(table1)

Displaying and summarising data II

starwars %>%
  select(name, height, mass)

# A tibble: 87 × 3
   name               height  mass
   <chr>               <int> <dbl>
 1 Luke Skywalker        172    77
 2 C-3PO                 167    75
 3 R2-D2                  96    32
 4 Darth Vader           202   136
 5 Leia Organa           150    49
 6 Owen Lars             178   120
 7 Beru Whitesun Lars    165    75
 8 R5-D4                  97    32
 9 Biggs Darklighter     183    84
10 Obi-Wan Kenobi        182    77
# ℹ 77 more rows
…
# A tibble: 6 × 3
  country     year   cases
  <chr>       <chr>  <dbl>
1 Afghanistan 1999     745
2 Afghanistan 2000    2666
3 Brazil      1999   37737
4 Brazil      2000   80488
5 China       1999  212258
6 China       2000  213766

Pivot longer (another example)

billboard

# A tibble: 317 × 79
   artist     track date.entered   wk1   wk2   wk3   wk4   wk5   wk6   wk7   wk8
   <chr>      <chr> <date>       <dbl> <dbl> <dbl> <dbl> <dbl> <dbl> <dbl> <dbl>
 1 2 Pac      Baby… 2000-02-26      87    82    72    77    87    94    99    NA
 2 2Ge+her    The … 2000-09-02      91    87    92    NA    NA    NA    NA    NA
 3 3 Doors D… Kryp… 2000-04-08      81    70    68    67    66    57    54    53
 4 3 Doors D… Loser 2000-10-21      76    76    72    69    67    65    55    59
 5 504 Boyz   Wobb… 2000-04-15      57    34    25    17    17    31    36    49
 6 98^0       Give… 2000-08-19      51    39    34    26    26    19     2     2
 7 A*Teens    Danc… 2000-07-08      97    97    96    95   100    NA    NA    NA
 8 Aaliyah    I Do… 2000-01-29      84    62    51    41    38    35    35    38
 9 Aaliyah    Try … 2000-03-18      59    53    38    28    21    18    16    14
10 Adams, Yo… Open… 2000-08-26      76    76    74    69    68    67    61    58
# ℹ 307 more rows
# ℹ 68 more variables: wk9 <dbl>, wk10 <dbl>, wk11 <dbl>, wk12 <dbl>,
#   wk13 <dbl>, wk14 <dbl>, wk15 <dbl>, wk16 <dbl>, wk17 <dbl>, wk18 <dbl>,
#   wk19 <dbl>, wk20 <dbl>, wk21 <dbl>, wk22 <dbl>, wk23 <dbl>, wk24 <dbl>,
#   wk25 <dbl>, wk26 <dbl>, wk27 <dbl>, wk28 <dbl>, wk29 <dbl>, wk30 <dbl>,
#   wk31 <dbl>, wk32 <dbl>, wk33 <dbl>, wk34 <dbl>, wk35 <dbl>, wk36 <dbl>,
#   wk37 <dbl>, wk38 <dbl>, wk39 <dbl>, wk40 <dbl>, wk41 <dbl>, wk42 <dbl>, …

Use pivot longer

billboard %>%
  pivot_longer(
    cols = starts_with("wk"), # Use regular expressions
    names_to = "week",
    values_to = "rank",
    values_drop_na = TRUE # Drop NAs
  )

# A tibble: 5,307 × 5
   artist  track                   date.entered week   rank
   <chr>   <chr>                   <date>       <chr> <dbl>
 1 2 Pac   Baby Don't Cry (Keep... 2000-02-26   wk1      87
 2 2 Pac   Baby Don't Cry (Keep... 2000-02-26   wk2      82
 3 2 Pac   Baby Don't Cry (Keep... 2000-02-26   wk3      72
 4 2 Pac   Baby Don't Cry (Keep... 2000-02-26   wk4      77
 5 2 Pac   Baby Don't Cry (Keep... 2000-02-26   wk5      87
 6 2 Pac   Baby Don't Cry (Keep... 2000-02-26   wk6      94
 7 2 Pac   Baby Don't Cry (Keep... 2000-02-26   wk7      99
 8 2Ge+her The Hardest Part Of ... 2000-09-02   wk1      91
 9 2Ge+her The Hardest Part Of ... 2000-09-02   wk2      87
10 2Ge+her The Hardest Part Of ... 2000-09-02   wk3      92
# ℹ 5,297 more rows
…
Subsetting observations (row)

Adding multiple condition:

starwars %>%
  dplyr::filter(height < 180 & height > 160) 

# A tibble: 23 × 14
   name     height  mass hair_color skin_color eye_color birth_year sex   gender
   <chr>     <int> <dbl> <chr>      <chr>      <chr>          <dbl> <chr> <chr> 
 1 Luke Sk…    172    77 blond      fair       blue              19 male  mascu…
 2 C-3PO       167    75 <NA>       gold       yellow           112 none  mascu…
 3 Owen La…    178   120 brown, gr… light      blue              52 male  mascu…
 4 Beru Wh…    165    75 brown      light      blue              47 fema… femin…
 5 Greedo      173    74 <NA>       green      black             44 male  mascu…
 6 Jabba D…    175  1358 <NA>       green-tan… orange           600 herm… mascu…
 7 Wedge A…    170    77 brown      fair       hazel             21 male  mascu…
 8 Palpati…    170    75 grey       pale       yellow            82 male  mascu…
 9 Lando C…    177    79 black      dark       brown             31 male  mascu…
10 Lobot       175    79 none       light      blue              37 male  mascu…
# ℹ 13 more rows
# ℹ 5 more variables: homeworld <chr>, species <chr>, films <list>,
#   vehicles <list>, starships <list>

Further examples

Filter brown and black hair_color

starwars %>%
  dplyr::filter(hair_color %in% c("black", "brown"))

# A tibble: 31 × 14
   name     height  mass hair_color skin_color eye_color birth_year sex   gender
   <chr>     <int> <dbl> <chr>      <chr>      <chr>          <dbl> <chr> <chr> 
 1 Leia Or…    150  49   brown      light      brown           19   fema… femin…
 2 Beru Wh…    165  75   brown      light      blue            47   fema… femin…
 3 Biggs D…    183  84   black      light      brown           24   male  mascu…
 4 Chewbac…    228 112   brown      unknown    blue           200   male  mascu…
 5 Han Solo    180  80   brown      fair       brown           29   male  mascu…
 6 Wedge A…    170  77   brown      fair       hazel           21   male  mascu…
 7 Jek Ton…    180 110   brown      fair       blue            NA   <NA>  <NA>  
 8 Boba Fe…    183  78.2 black      fair       brown           31.5 male  mascu…
 9 Lando C…    177  79   black      dark       brown           31   male  mascu…
10 Arvel C…     NA  NA   brown      fair       brown           NA   male  mascu…
# ℹ 21 more rows
# ℹ 5 more variables: homeworld <chr>, species <chr>, films <list>,
#   vehicles <list>, starships <list>
…
Subsetting variables (columns)

names(msleep)

 [1] "name"         "genus"        "vore"         "order"        "conservation"
 [6] "sleep_total"  "sleep_rem"    "sleep_cycle"  "awake"        "brainwt"     
[11] "bodywt"      

# Only numeric
msleep %>%
  dplyr::select(where(is.numeric))

# A tibble: 83 × 6
   sleep_total sleep_rem sleep_cycle awake  brainwt  bodywt
         <dbl>     <dbl>       <dbl> <dbl>    <dbl>   <dbl>
 1        12.1      NA        NA      11.9 NA        50    
 2        17         1.8      NA       7    0.0155    0.48 
 3        14.4       2.4      NA       9.6 NA         1.35 
 4        14.9       2.3       0.133   9.1  0.00029   0.019
 5         4         0.7       0.667  20    0.423   600    
 6        14.4       2.2       0.767   9.6 NA         3.85 
 7         8.7       1.4       0.383  15.3 NA        20.5  
 8         7        NA        NA      17   NA         0.045
 9        10.1       2.9       0.333  13.9  0.07     14    
10         3        NA        NA      21    0.0982   14.8  
# ℹ 73 more rows

Subsetting variables (columns) by their names

msleep %>%
  dplyr::select(contains("sleep"))

# A tibble: 83 × 3
   sleep_total sleep_rem sleep_cycle
         <dbl>     <dbl>       <dbl>
 1        12.1      NA        NA    
 2        17         1.8      NA    
 3        14.4       2.4      NA    
 4        14.9       2.3       0.133
 5         4         0.7       0.667
 6        14.4       2.2       0.767
 7         8.7       1.4       0.383
 8         7        NA        NA    
 9        10.1       2.9       0.333
10         3        NA        NA    
# ℹ 73 more rows
…
